{
  "me": {
    "username": "stub-api testbruker",
    "permissions": {
      "statusliste": true,
      "personEndre": true
    }
  },
  "data": {
    "content": [
      {
        "informationTypeId": 1,
        "name": "Sivilstand",
        "description": "En overordnet kategori som beskriver en persons forhold til en annen person.",
        "category": {
          "codeListId": 1,
          "listName": "CATEGORY",
          "code": "PERSONALIA",
          "description": "Personalia",
          "createdBy": "Datajeger",
          "createdDate": "'2019-01-01 08:45:00 GMT+1'",
          "lastModifiedBy": "",
          "lastModifiedDate": ""
        },
        "producer": {
          "codeListId": 12,
          "listName": "PRODUCER",
          "code": "FOLKEREGISTERET",
          "description": "Informasjon fra Skatt",
          "createdBy": "Datajeger",
          "createdDate": "'2019-01-01 08:45:00 GMT+1'",
          "lastModifiedBy": "",
          "lastModifiedDate": ""
        },
        "system": {
          "codeListId": 21,
          "listName": "SYSTEM",
          "code": "TPS",
          "description": "Tjenestebasert PersondataSystem",
          "createdBy": "Datajeger",
          "createdDate": "'2019-01-01 08:45:00 GMT+1'",
          "lastModifiedBy": "",
          "lastModifiedDate": ""
        },
        "personalData": true,

        "elasticsearchId": "",
        "elasticsearchStatus": "",
        "createdBy": "Datajeger",
        "createdDate": "'2019-01-01 08:45:00 GMT+1'",
        "lastModifiedBy": "",
        "lastModifiedDate": "",
        "policy": [
          {
            "policyId": 1,

            "purpose": {
              "purposeId": 1111,
              "purposeCode": "AAP",
              "description": "Arbeidsavklaringspenger",
              "createdBy": "Datajeger",
              "createdDate": "'2019-01-01 08:45:00 GMT+1'",
              "lastModifiedBy": "",
              "lastModifiedDate": ""
            },

            "legalBasisDescription": "???",
            "legalBasis": {
              "legalBasisid": 1,
              "description": "§ FTL 14",
              "createdBy": "Datajeger",
              "createdDate": "'2019-01-01 08:45:00 GMT+1'",
              "lastModifiedBy": "",
              "lastModifiedDate": ""
            },
            "createdBy": "Datajeger",
            "createdDate": "'2019-01-01 08:45:00 GMT+1'",
            "lastModifiedBy": "",
            "lastModifiedDate": ""
          },
          {
            "policyId": 2345,

            "purpose": {
              "purposeId": 1211,
              "purposeCode": "AAR",
              "description": "Aa-registeret",
              "createdBy": "Datajeger",
              "createdDate": "'2019-01-01 08:45:00 GMT+1'",
              "lastModifiedBy": "",
              "lastModifiedDate": ""
            },

            "legalBasisDescription": "???",
            "legalBasis": {
              "legalBasisid": 2,
              "description": "§ FTL 17a, § FTL 17b, § FTL 14",
              "createdBy": "Datajeger",
              "createdDate": "'2019-01-01 08:45:00 GMT+1'",
              "lastModifiedBy": "",
              "lastModifiedDate": ""
            },
            "createdBy": "Datajeger",
            "createdDate": "'2019-01-01 08:45:00 GMT+1'",
            "lastModifiedBy": "",
            "lastModifiedDate": ""
          }
        ],
        "isOpen": true
      },
      {
        "informationTypeId": 2,
        "name": "Bostedsadresse",
        "description": "En geografisk adresse fra Folkeregisteret som angir hvor en fysisk person bor i juridisk forstand. Adressen angir hvor den gitte personen er regnet som bosatt etter folkeregisterlovgivningen. Bostedsadressen fastsettes i et enkeltvedtak av Skatteetaten. Bostedsadressen vil alltid være en norsk stedsadresse eller en norsk gateadresse, og er en av tre godkjente geografiske adressetyper i TPS.",
        "sourceOfRecord": "Folkeregisteret",
        "personalData": true,
        "itSystem": "tps"
      },
      {
        "informationTypeId": 3,
        "name": "Oppholdsadresse",
        "description": "Angir hvor en bruker (BEGREP-20) oppholder seg når brukeren har en postadresse (BEGREP-658). Denne adressetypen brukes i fagsystemet Arena og erstatter de to adressetypene midlertidig og bolig",
        "sourceOfRecord": "Bruker",
        "personalData": true,
        "itSystem": "tps"
      },
      {
        "informationTypeId": 4,
        "name": "Fødsel",
        "description": "En nedkomst av ett eller flere barn. Fødselsbegrepet omfatter alle levendefødte barn uansett fødselstidspunkt, og dødfødt i 26. svangerskapsuke eller senere.",
        "sourceOfRecord": "Folkeregisteret",
        "personalData": true,
        "itSystem": "tps"
      },
      {
        "informationTypeId": 6,
        "name": "Pensjonsgivende inntekt",
        "description": "Ferdiglignet pensjonsgivende inntekt.",
        "sourceOfRecord": "Skattedirektoratet",
        "personalData": true,
        "itSystem": "popp"
      },
      {
        "informationTypeId": 7,
        "name": "Arbeidsforhold",
        "description": "Avtaleforhold hvor den ene part, arbeidstakeren, forplikter seg til å utføre arbeid mot lønn eller annen godtgjørelse for den annen part, arbeidsgiveren, i henhold til dennes ledelse.",
        "sourceOfRecord": "Arbeidsgiver",
        "personalData": true,
        "itSystem": "aa-reg"
      },
      {
        "informationTypeId": 8,
        "name": "Telefonnummer",
        "description": "Telefonnummer for å komme i kontakt med bruker.",
        "sourceOfRecord": "Bruker",
        "personalData": true,
        "itSystem": "tps"
      }
    ],
    "currentPage": 0,
    "pageSize": 3,
    "totalElements": 8
  },
  "informationType": {
    "content": [
      {
        "createdBy": "Ketill Fenne",
        "createdDate": 1558421034760,
        "lastModifiedBy": null,
        "lastModifiedDate": null,
        "informationTypeId": 2,
        "name": "Sivilstand",
        "description": "En overordnet kategori som beskriver en persons forhold til en annen person. Ref. til Begrepskatalog: https://jira.adeo.no/browse/BEGREP-176",
        "category": { "code": "code for 7", "description": "description for 7" },
        "producer": { "code": "code for 1", "description": "description for 1" },
        "system": { "code": "code for 28", "description": "description for 28" },
        "personalData": true,
        "isOpen": true,
        "isEdit": true
      },
      {
        "createdBy": "Ketill Fenne",
        "createdDate": 1558421304143,
        "lastModifiedBy": null,
        "lastModifiedDate": null,
        "informationTypeId": 3,
        "name": "Arbeidsforhold",
        "description": "Avtaleforhold hvor den ene part, arbeidstakeren, forplikter seg til å utføre arbeid mot lønn eller annen godtgjørelse for den annen part, arbeidsgiveren, i henhold til dennes ledelse. Ref. til Begrepskatalog: https://jira.adeo.no/browse/BEGREP-390",
        "category": { "code": "code for 7", "description": "description for 7" },
        "producer": { "code": "code for 1", "description": "description for 1" },
        "system": { "code": "code for 28", "description": "description for 28" },
        "personalData": true,
        "isOpen": true
      }
    ],
    "currentPage": 0,
    "pageSize": 3,
    "totalElements": 8
  },
  "policy": {
    "content": [
      {
        "policyId": 1,

        "informationType": {
          "informationTypeId": 2,
          "name": "Sivilstand",
          "description": "En overordnet kategori som beskriver en persons forhold til en annen person. Ref. til Begrepskatalog: https://jira.adeo.no/browse/BEGREP-176",
          "category": { "code": "code for 7", "description": "description for 7" },
          "producer": { "code": "code for 1", "description": "description for 1" },
          "system": { "code": "code for 28", "description": "description for 28" },
          "personalData": true,
          "createdBy": "Ketill Fenne",
          "createdDate": 1558421034760,
          "lastModifiedBy": null,
          "lastModifiedDate": null
        },

        "purpose": {
          "purposeId": 1111,
          "code": "AAP",
          "description": "Arbeidsavklaringspenger",
          "createdBy": "Datajeger",
          "createdDate": "'2019-01-01 08:45:00 GMT+1'",
          "lastModifiedBy": "",
          "lastModifiedDate": ""
        },

        "legalBasisDescription": "§ FTL 14",
        "createdBy": "Datajeger",
        "createdDate": "'2019-01-01 08:45:00 GMT+1'",
        "lastModifiedBy": "",
        "lastModifiedDate": ""
      },
      {
        "policyId": 2345,

        "informationType": {
          "informationTypeId": 2,
          "name": "Sivilstand",
          "description": "En overordnet kategori som beskriver en persons forhold til en annen person. Ref. til Begrepskatalog: https://jira.adeo.no/browse/BEGREP-176",
          "category": { "code": "code for 7", "description": "description for 7" },
          "producer": { "code": "code for 1", "description": "description for 1" },
          "system": { "code": "code for 28", "description": "description for 28" },
          "personalData": true,
          "createdBy": "Ketill Fenne",
          "createdDate": 1558421034760,
          "lastModifiedBy": null,
          "lastModifiedDate": null
        },

        "purpose": {
          "purposeId": 1211,
          "code": "AAR",
          "description": "Aa-registeret",
          "createdBy": "Datajeger",
          "createdDate": "'2019-01-01 08:45:00 GMT+1'",
          "lastModifiedBy": "",
          "lastModifiedDate": ""
        },

        "legalBasisDescription": "§ FTL 17a, § FTL 17b, § FTL 14",
        "createdBy": "Datajeger",
        "createdDate": "'2019-01-01 08:45:00 GMT+1'",
        "lastModifiedBy": "",
        "lastModifiedDate": "",
        "isOpen": true
      }
    ],
    "currentPage": 0,
    "pageSize": 10,
    "totalElements": 2
  },
  "purpose": {
    "PURPOSE": "purpose description",
    "PURPOSE_2": "purpose description 2",
    "PURPOSE_3": "purpose description 3"
  },
  "category": {
    "CATEGORY": "category description",
    "CATEGORY 2": "category description 2",
    "CATEGORY 3": "category description 3"
  },
  "system": {
    "SYSTEM": "system description"
  },
  "producer": {
    "PRODUCER": "producer description"
  },
  "dfdf": {
    "content": [
      {
        "policyId": 1,
        "informationType": {
          "informationTypeId": 1,
          "name": "Sivilstand",
          "description": "En overordnet kategori som beskriver en persons forhold til en annen person. Ref. til Begrepskatalog: https://jira.adeo.no/browse/BEGREP-176"
        },
        "legalBasisDescription": "Ftrl. § 11-20",
        "purpose": { "code": "AAP", "description": "Arbeidsavklaringspenger" }
      },
      {
        "policyId": 2,
        "informationType": {
          "informationTypeId": 1,
          "name": "Sivilstand",
          "description": "En overordnet kategori som beskriver en persons forhold til en annen person. Ref. til Begrepskatalog: https://jira.adeo.no/browse/BEGREP-176"
        },
        "legalBasisDescription": "Ftrl. § 3-2, 3-3, 19-8, 20-9.",
        "purpose": { "code": "ALD", "description": "ALD" }
      },
      {
        "policyId": 3,
        "informationType": {
          "informationTypeId": 1,
          "name": "Sivilstand",
          "description": "En overordnet kategori som beskriver en persons forhold til en annen person. Ref. til Begrepskatalog: https://jira.adeo.no/browse/BEGREP-176"
        },
        "legalBasisDescription": "Ftrl. § 3-2, 3-3, 19-8, 20-9.",
        "purpose": { "code": "KRG", "description": "KRG" }
      },
      {
        "policyId": 4,
        "informationType": {
          "informationTypeId": 1,
          "name": "Sivilstand",
          "description": "En overordnet kategori som beskriver en persons forhold til en annen person. Ref. til Begrepskatalog: https://jira.adeo.no/browse/BEGREP-176"
        },
        "legalBasisDescription": "Ftrl § 3-2 og § 3-3 ",
        "purpose": { "code": "AFP", "description": "AFP" }
      },
      {
        "policyId": 5,
        "informationType": {
          "informationTypeId": 1,
          "name": "Sivilstand",
          "description": "En overordnet kategori som beskriver en persons forhold til en annen person. Ref. til Begrepskatalog: https://jira.adeo.no/browse/BEGREP-176"
        },
        "legalBasisDescription": "Barnetrygdloven § 9",
        "purpose": { "code": "BAR", "description": "Barnetrygd" }
      },
      {
        "policyId": 6,
        "informationType": {
          "informationTypeId": 1,
          "name": "Sivilstand",
          "description": "En overordnet kategori som beskriver en persons forhold til en annen person. Ref. til Begrepskatalog: https://jira.adeo.no/browse/BEGREP-176"
        },
        "legalBasisDescription": "",
        "purpose": { "code": "KON", "description": "Kontantstøtte" }
      },
      {
        "policyId": 7,
        "informationType": {
          "informationTypeId": 1,
          "name": "Sivilstand",
          "description": "En overordnet kategori som beskriver en persons forhold til en annen person. Ref. til Begrepskatalog: https://jira.adeo.no/browse/BEGREP-176"
        },
        "legalBasisDescription": "Forskotteringsloven § 5",
        "purpose": { "code": "BID", "description": "1 - Bidrag" }
      },
      {
        "policyId": 8,
        "informationType": {
          "informationTypeId": 1,
          "name": "Sivilstand",
          "description": "En overordnet kategori som beskriver en persons forhold til en annen person. Ref. til Begrepskatalog: https://jira.adeo.no/browse/BEGREP-176"
        },
        "legalBasisDescription": "Ftrl. § 4-5",
        "purpose": { "code": "DAG", "description": "Dagpenger" }
      },
      {
        "policyId": 9,
        "informationType": {
          "informationTypeId": 1,
          "name": "Sivilstand",
          "description": "En overordnet kategori som beskriver en persons forhold til en annen person. Ref. til Begrepskatalog: https://jira.adeo.no/browse/BEGREP-176"
        },
        "legalBasisDescription": "Ekteskapsloven §§ 79 til 84",
        "purpose": { "code": "EKT", "description": "EKT" }
      },
      {
        "policyId": 10,
        "informationType": {
          "informationTypeId": 1,
          "name": "Sivilstand",
          "description": "En overordnet kategori som beskriver en persons forhold til en annen person. Ref. til Begrepskatalog: https://jira.adeo.no/browse/BEGREP-176"
        },
        "legalBasisDescription": "Ftrl. § 15-4",
        "purpose": { "code": "ENF", "description": "Enslig forsørger" }
      },
      {
        "policyId": 11,
        "informationType": {
          "informationTypeId": 1,
          "name": "Sivilstand",
          "description": "En overordnet kategori som beskriver en persons forhold til en annen person. Ref. til Begrepskatalog: https://jira.adeo.no/browse/BEGREP-176"
        },
        "legalBasisDescription": "Barneloven § 4, 5 og 7",
        "purpose": { "code": "FAR", "description": "Farskap" }
      },
      {
        "policyId": 12,
        "informationType": {
          "informationTypeId": 1,
          "name": "Sivilstand",
          "description": "En overordnet kategori som beskriver en persons forhold til en annen person. Ref. til Begrepskatalog: https://jira.adeo.no/browse/BEGREP-176"
        },
        "legalBasisDescription": "Ftrl. § 14-5",
        "purpose": { "code": "FOR", "description": "Foreldre- og svangerskapspenger" }
      },
      {
        "policyId": 13,
        "informationType": {
          "informationTypeId": 1,
          "name": "Sivilstand",
          "description": "En overordnet kategori som beskriver en persons forhold til en annen person. Ref. til Begrepskatalog: https://jira.adeo.no/browse/BEGREP-176"
        },
        "legalBasisDescription": "Ftrl. § 17-5, 17-6  og 17-10",
        "purpose": { "code": "GJP", "description": "GJP" }
      },
      {
        "policyId": 14,
        "informationType": {
          "informationTypeId": 1,
          "name": "Sivilstand",
          "description": "En overordnet kategori som beskriver en persons forhold til en annen person. Ref. til Begrepskatalog: https://jira.adeo.no/browse/BEGREP-176"
        },
        "legalBasisDescription": "",
        "purpose": { "code": "GRA", "description": "Gravferdsstønad" }
      },
      {
        "policyId": 15,
        "informationType": {
          "informationTypeId": 1,
          "name": "Sivilstand",
          "description": "En overordnet kategori som beskriver en persons forhold til en annen person. Ref. til Begrepskatalog: https://jira.adeo.no/browse/BEGREP-176"
        },
        "legalBasisDescription": "Ftrl. § 21-3",
        "purpose": { "code": "GRU", "description": "Grunn- og hjelpestønad" }
      },
      {
        "policyId": 16,
        "informationType": {
          "informationTypeId": 1,
          "name": "Sivilstand",
          "description": "En overordnet kategori som beskriver en persons forhold til en annen person. Ref. til Begrepskatalog: https://jira.adeo.no/browse/BEGREP-176"
        },
        "legalBasisDescription": "Ftrl. kap. 10 og §§ 21-3, 21-4",
        "purpose": { "code": "HJE", "description": "Hjelpemidler" }
      },
      {
        "policyId": 17,
        "informationType": {
          "informationTypeId": 1,
          "name": "Sivilstand",
          "description": "En overordnet kategori som beskriver en persons forhold til en annen person. Ref. til Begrepskatalog: https://jira.adeo.no/browse/BEGREP-176"
        },
        "legalBasisDescription": "Ftrl, btrl, bidragsforskudd, EØS-forordning m.m.",
        "purpose": { "code": "KTR", "description": "Kontroll" }
      },
      {
        "policyId": 18,
        "informationType": {
          "informationTypeId": 1,
          "name": "Sivilstand",
          "description": "En overordnet kategori som beskriver en persons forhold til en annen person. Ref. til Begrepskatalog: https://jira.adeo.no/browse/BEGREP-176"
        },
        "legalBasisDescription": "Folketrygdloven, trygdeavtaler, herunder EØS.",
        "purpose": { "code": "MED", "description": "Medlemskap" }
      },
      {
        "policyId": 19,
        "informationType": {
          "informationTypeId": 1,
          "name": "Sivilstand",
          "description": "En overordnet kategori som beskriver en persons forhold til en annen person. Ref. til Begrepskatalog: https://jira.adeo.no/browse/BEGREP-176"
        },
        "legalBasisDescription": "Barneverntjenesteloven § 9-2",
        "purpose": { "code": "OVR", "description": "4 - Øvrig" }
      },
      {
        "policyId": 20,
        "informationType": {
          "informationTypeId": 1,
          "name": "Sivilstand",
          "description": "En overordnet kategori som beskriver en persons forhold til en annen person. Ref. til Begrepskatalog: https://jira.adeo.no/browse/BEGREP-176"
        },
        "legalBasisDescription": "SU lov, § 5",
        "purpose": { "code": "SUP", "description": "Supplerende stønad" }
      }
    ],
    "pageable": {
      "sort": { "sorted": false, "unsorted": true, "empty": true },
      "offset": 0,
      "pageSize": 20,
      "pageNumber": 0,
      "paged": true,
      "unpaged": false
    },
    "totalPages": 2,
    "totalElements": 24,
    "last": false,
    "size": 20,
    "number": 0,
    "sort": { "sorted": false, "unsorted": true, "empty": true },
    "first": true,
    "numberOfElements": 20,
    "empty": false
  }
}
